/home/puneet/Downloads/GIT-BBB/images/29072018


U-Boot SPL 2018.03-dirty (Jul 28 2018 - 16:10:09 +0530)                                                                                      
Trying to boot from UART                                                                                                                     
CxyzModem - CRC mode, 3376(SOH)/0(STX)/0(CAN) packets, 7 retries                                                                            
Loaded 431984 bytes                                                                                                                          
                                                                                                                                             
                                                                                                                                             
U-Boot 2018.03-dirty (Jul 28 2018 - 16:10:09 +0530)                                                                                          
                                                                                                                                             
CPU  : AM335X-GP rev 2.1                                                                                                                     
I2C:   ready                                                                                                                                 
DRAM:  512 MiB                                                                                                                               
No match for driver 'omap_hsmmc'                                                                                                             
No match for driver 'omap_hsmmc'                                                                                                             
Some drivers were not found                                                                                                                  
Reset Source: Global external warm reset has occurred.                                                                                       
Reset Source: Power-on reset has occurred.                                                                                                   
RTC 32KCLK Source: External.                                                                                                                 
MMC:   OMAP SD/MMC: 0, OMAP SD/MMC: 1                                                                                                        
Loading Environment from EXT4... Card did not respond to voltage select!                                                                     
** Bad device mmc 0 **                                                                                                                       
Failed (-5)                                                                                                                                  
Board: BeagleBone Black                                                                                                                      
<ethaddr> not set. Validating first E-fuse MAC                                                                                               
BeagleBone Black:                                                                                                                            
BeagleBone: cape eeprom: i2c_probe: 0x54:                                                                                                    
BeagleBone: cape eeprom: i2c_probe: 0x55:                                                                                                    
BeagleBone: cape eeprom: i2c_probe: 0x56:                                                                                                    
BeagleBone: cape eeprom: i2c_probe: 0x57:                                                                                                    
Net:   eth0: MII MODE                                                                                                                        
cpsw, usb_ether                                                                                                                              
Press SPACE to abort autoboot in 2 seconds 

Press SPACE to abort autoboot in 2 seconds                                                                                          
=> mmc rescan                                                                                                                       
Card did not respond to voltage select!                                                                                             
=> mmc dev                                                                                                                          
Card did not respond to voltage select!                                                                                             
=> 





MMC:   OM+-----------[ymodem upload - Press CTRL-C to quit]------------+                                                            
Loading E|Sending: uImage                                              |                                                            
** Bad de|Ymodem sectors/kbytes sent: 4011/501kRetry 0: NAK on sector  |                                                            
Failed (-|Retry 0: Cancelled                                           |                                                            
Board: Be|                                                             |                                                            
<ethaddr>|Transfer incomplete                                          |                                                            
BeagleBon|                                                             |                                                            
BeagleBon| READY: press any key to continue...                         |                                                            
BeagleBon+-----------------------------------------
